module bitbucket.org/shitiomatic/lonchat

go 1.12

require (
	github.com/blackjack/webcam v0.0.0-20190407142958-6cd3de4f4861
	github.com/golang/mock v1.3.1 // indirect
	github.com/golang/protobuf v1.3.2 // indirect
	github.com/gorilla/websocket v1.4.0
	github.com/kr/pretty v0.1.0 // indirect
	github.com/lucas-clemente/quic-go v0.11.2 // indirect
	github.com/marten-seemann/qtls v0.3.2 // indirect
	github.com/nfnt/resize v0.0.0-20180221191011-83c6a9932646
	github.com/onsi/ginkgo v1.8.0 // indirect
	github.com/onsi/gomega v1.5.0 // indirect
	github.com/pion/dtls v1.4.0 // indirect
	github.com/pion/ice v0.5.1 // indirect
	github.com/pion/rtcp v1.2.1
	github.com/pion/rtp v1.1.3
	github.com/pion/stun v0.3.1
	github.com/pion/webrtc/v2 v2.0.24-0.20190715150138-632530bc69a7
	github.com/xlab/libvpx-go v0.0.0-20200321114045-4c41f8a7acef // indirect
	golang.org/x/crypto v0.0.0-20190701094942-4def268fd1a4 // indirect
	golang.org/x/sys v0.0.0-20190712062909-fae7ac547cb7
	golang.org/x/text v0.3.2 // indirect
	gopkg.in/check.v1 v1.0.0-20180628173108-788fd7840127 // indirect
	gopkg.in/yaml.v2 v2.2.2 // indirect
)
